Computational Sociology (PGSP11583) - Worksheet 1: Web tracking and networks
…
The data contain more columns than this, but we’ll focus on these three columns for now. How do we select just these three columns and thereby reduce the size of our dataset? To do so, we just need to use the select function in the dplyr package:

wbdata_short <- wbdata %>% 
  select(domain, searchTerms, urlId)

What’s the most popular website in my browsing behaviour? To find out, we’ll have to count how many times I’ve accessed a particular domain. This is pretty straightforward. We first group_by the domain of interest and then we use the count function to tally up the number of visits per domain:

wbdata %>% 
  group_by(domain) %>%
  count() 

# A tibble: 27 × 2
# Groups:   domain [27]
   domain                               n
   <chr>                            <int>
 1 Acrobat-for-Chrome.pdf Extension     2
 2 Adobe Acrobat Options Extension      2
 3 adobe.com                            3
 4 amazon.co.uk                         6
 5 apple.com                            6
 6 atgtickets.com                       6
 7 atypon.com                           2
 8 bbc.co.uk                            2
 9 chrome.com                           1
10 chrome.google.com                    9
# … with 17 more rows

At the moment, this is sorted alphabetically, which isn’t very intuitive. Let’s instead tell R to display in descending order the number of visits to each domain with the arrange function:

wbdata %>% 
  group_by(domain) %>%
  count() %>%
  arrange(desc(n))

# A tibble: 27 × 2
# Groups:   domain [27]
   domain                  n
   <chr>               <int>
 1 google.com             61
 2 diversitytravel.com    24
 3 qualtrics.com          11
 4 chrome.google.com       9
 5 stackoverflow.com       9
 6 uchicago.edu            9
 7 youtube.com             9
 8 amazon.co.uk            6
 9 apple.com               6
10 atgtickets.com          6
# … with 17 more rows
…
